testbench/dump.vcd
$version Generated by VerilatedVcd $end
$timescale 1ps $end
 $scope module $rootio $end
  $var wire 1 # clk $end
  $var wire 1 $ rst_n $end
  $var wire 1 % start $end
  $var wire 1 & done $end
  $var wire 1 ' out_valid $end
 $upscope $end
 $scope module qkv_generator $end
  $var wire 32 Q DATA_WIDTH [31:0] $end
  $var wire 32 R L [31:0] $end
  $var wire 32 S N [31:0] $end
  $var wire 32 R E [31:0] $end
  $var wire 1 ( clk $end
  $var wire 1 ) rst_n $end
  $var wire 1 * start $end
  $var wire 1 + done $end
  $var wire 1 , out_valid $end
  $var wire 32 R TOTAL_TOKENS [31:0] $end
  $var wire 32 T OUT_DATA_WIDTH [31:0] $end
  $var wire 3 - curr_state [2:0] $end
  $var wire 3 . next_state [2:0] $end
  $var wire 1 / matmul_start $end
  $var wire 1 0 matmul_done $end
  $var wire 1 1 start_pulse $end
  $scope module matmul_inst $end
   $var wire 32 R M [31:0] $end
   $var wire 32 R K [31:0] $end
   $var wire 32 R N [31:0] $end
   $var wire 1 2 clk $end
   $var wire 1 3 rst_n $end
   $var wire 1 4 start $end
   $var wire 1 5 done $end
   $var wire 2 6 state [1:0] $end
   $var wire 2 7 next_state [1:0] $end
   $var wire 32 8 cycle_count [31:0] $end
   $var wire 1 9 done_int $end
   $scope module unnamedblk1 $end
    $var wire 32 : i [31:0] $end
   $upscope $end
   $scope module unnamedblk2 $end
    $var wire 32 ; i [31:0] $end
   $upscope $end
   $scope module unnamedblk4 $end
    $var wire 32 < i [31:0] $end
   $upscope $end
   $scope module unnamedblk5 $end
    $var wire 32 = i [31:0] $end
   $upscope $end
   $scope module unnamedblk6 $end
    $var wire 32 > i [31:0] $end
    $scope module unnamedblk7 $end
     $var wire 32 ? j [31:0] $end
    $upscope $end
   $upscope $end
   $scope module unnamedblk8 $end
    $var wire 32 @ i [31:0] $end
   $upscope $end
  $upscope $end
  $scope module unnamedblk1 $end
   $var wire 32 A i [31:0] $end
  $upscope $end
  $scope module unnamedblk10 $end
   $var wire 32 B i [31:0] $end
  $upscope $end
  $scope module unnamedblk11 $end
   $var wire 32 C i [31:0] $end
   $scope module unnamedblk12 $end
    $var wire 1 D sign_bit $end
    $var wire 1 E int_bit $end
   $upscope $end
  $upscope $end
  $scope module unnamedblk13 $end
   $var wire 32 F i [31:0] $end
  $upscope $end
  $scope module unnamedblk2 $end
   $var wire 32 G i [31:0] $end
  $upscope $end
  $scope module unnamedblk3 $end
   $var wire 32 H i [31:0] $end
  $upscope $end
  $scope module unnamedblk4 $end
   $var wire 32 I i [31:0] $end
  $upscope $end
  $scope module unnamedblk5 $end
   $var wire 32 J i [31:0] $end
   $scope module unnamedblk6 $end
    $var wire 1 K sign_bit $end
    $var wire 1 L int_bit $end
   $upscope $end
  $upscope $end
  $scope module unnamedblk7 $end
   $var wire 32 M i [31:0] $end
  $upscope $end
  $scope module unnamedblk8 $end
   $var wire 32 N i [31:0] $end
   $scope module unnamedblk9 $end
    $var wire 1 O sign_bit $end
    $var wire 1 P int_bit $end
   $upscope $end
  $upscope $end
 $upscope $end
$enddefinitions $end


#0
1#
0$
0%
0&
0'
1(
0)
0*
0+
0,
b000 -
b000 .
0/
00
01
12
03
04
05
b00 6
b00 7
b00000000000000000000000000000000 8
09
b00000000000000000000000001000000 :
b00000000000000000000000001000000 ;
b00000000000000000000000001000000 <
b00000000000000000000000000000000 =
b00000000000000000000000000000000 >
b00000000000000000000000000000000 ?
b00000000000000000000000001000000 @
b00000000000000000000000001000000 A
b00000000000000000000000000000000 B
b00000000000000000000000000000000 C
0D
0E
b00000000000000000000000000000000 F
b00000000000000000000000001000000 G
b00000000000000000000000000000000 H
b00000000000000000000000000000000 I
b00000000000000000000000000000000 J
0K
0L
b00000000000000000000000000000000 M
b00000000000000000000000000000000 N
0O
0P
b00000000000000000000000000010000 Q
b00000000000000000000000000001000 R
b00000000000000000000000000000001 S
b00000000000000000000000000100000 T
#5000
0#
0(
02
#10000
1#
1(
12
#15000
0#
0(
02
#20000
1#
1$
1(
1)
12
13
#25000
0#
0(
02
#30000
1#
1(
12
#35000
0#
0(
02
#40000
1#
0$
1(
0)
12
03
#45000
0#
0(
02
#50000
1#
1(
12
#55000
0#
0(
02
#60000
1#
1$
1(
1)
12
13
#65000
0#
0(
02
#70000
1#
1(
12
#75000
0#
0(
02
#80000
1#
1%
1(
1*
b001 -
b010 .
12
#85000
0#
0(
02
#90000
1#
1(
b010 -
1/
11
12
14
b01 7
b00000000000000000000000001000000 H
b00000000000000000000000001000000 I
#95000
0#
0(
02
#100000
1#
1(
0/
01
12
04
b01 6
b10 7
#105000
0#
0(
02
#110000
1#
1(
12
b10 6
b00000000000000000000000001000000 =
#115000
0#
0(
02
#120000
1#
1(
12
b00000000000000000000000000000001 8
b00000000000000000000000000001000 >
b00000000000000000000000000001000 ?
#125000
0#
0(
02
#130000
1#
1(
12
b00000000000000000000000000000010 8
#135000
0#
0(
02
#140000
1#
1(
12
b00000000000000000000000000000011 8
#145000
0#
0(
02
#150000
1#
1(
12
b00000000000000000000000000000100 8
#155000
0#
0(
02
#160000
1#
1(
12
b00000000000000000000000000000101 8
#165000
0#
0(
02
#170000
1#
1(
12
b00000000000000000000000000000110 8
#175000
0#
0(
02
#180000
1#
1(
12
b11 7
b00000000000000000000000000000111 8
#185000
0#
0(
02
#190000
1#
1(
12
b11 6
b00 7
b00000000000000000000000000001000 8
19
#195000
0#
0(
02
#200000
1#
1(
b011 .
10
12
15
b00 6
b00000000000000000000000000000000 8
09
#205000
0#
0(
02
#210000
1#
1(
b011 -
1/
00
11
12
14
05
b01 7
b00000000000000000000000001000000 J
b00000000000000000000000001000000 M
#215000
0#
0(
02
#220000
1#
1(
0/
01
12
04
b01 6
b10 7
#225000
0#
0(
02
#230000
1#
1(
12
b10 6
#235000
0#
0(
02
#240000
1#
1(
12
b00000000000000000000000000000001 8
#245000
0#
0(
02
#250000
1#
1(
12
b00000000000000000000000000000010 8
#255000
0#
0(
02
#260000
1#
1(
12
b00000000000000000000000000000011 8
#265000
0#
0(
02
#270000
1#
1(
12
b00000000000000000000000000000100 8
#275000
0#
0(
02
#280000
1#
1(
12
b00000000000000000000000000000101 8
#285000
0#
0(
02
#290000
1#
1(
12
b00000000000000000000000000000110 8
#295000
0#
0(
02
#300000
1#
1(
12
b11 7
b00000000000000000000000000000111 8
#305000
0#
0(
02
#310000
1#
1(
12
b11 6
b00 7
b00000000000000000000000000001000 8
19
#315000
0#
0(
02
#320000
1#
1(
b100 .
10
12
15
b00 6
b00000000000000000000000000000000 8
09
#325000
0#
0(
02
#330000
1#
1(
b100 -
1/
00
11
12
14
05
b01 7
b00000000000000000000000001000000 B
b00000000000000000000000001000000 N
#335000
0#
0(
02
#340000
1#
1(
0/
01
12
04
b01 6
b10 7
#345000
0#
0(
02
#350000
1#
1(
12
b10 6
#355000
0#
0(
02
#360000
1#
1(
12
b00000000000000000000000000000001 8
#365000
0#
0(
02
#370000
1#
1(
12
b00000000000000000000000000000010 8
#375000
0#
0(
02
#380000
1#
1(
12
b00000000000000000000000000000011 8
#385000
0#
0(
02
#390000
1#
1(
12
b00000000000000000000000000000100 8
#395000
0#
0(
02
#400000
1#
1(
12
b00000000000000000000000000000101 8
#405000
0#
0(
02
#410000
1#
1(
12
b00000000000000000000000000000110 8
#415000
0#
0(
02
#420000
1#
1(
12
b11 7
b00000000000000000000000000000111 8
#425000
0#
0(
02
#430000
1#
1(
12
b11 6
b00 7
b00000000000000000000000000001000 8
19
#435000
0#
0(
02
#440000
1#
1(
b101 .
10
12
15
b00 6
b00000000000000000000000000000000 8
09
#445000
0#
0(
02
#450000
1#
1&
1'
1(
1+
1,
b101 -
b000 .
00
12
05
b00000000000000000000000001000000 C
#455000
0#
0(
02
#460000
1#
0%
0&
0'
1(
0*
0+
0,
b000 -
12
b00000000000000000000000001000000 F
#465000
0#
0(
02
#470000
1#
0$
1(
0)
12
03
#475000
0#
0(
02
#480000
1#
1(
12
#485000
0#
0(
02
#490000
1#
1$
1(
1)
12
13
#495000
0#
0(
02
#500000
1#
1(
12
#505000
0#
0(
02
#510000
1#
1%
1(
1*
b001 -
b010 .
12
#515000
0#
0(
02
#520000
1#
1(
b010 -
1/
11
12
14
b01 7
#525000
0#
0(
02
#530000
1#
1(
0/
01
12
04
b01 6
b10 7
#535000
0#
0(
02
#540000
1#
1(
12
b10 6
#545000
0#
0(
02
#550000
1#
1(
12
b00000000000000000000000000000001 8
#555000
0#
0(
02
#560000
1#
1(
12
b00000000000000000000000000000010 8
#565000
0#
0(
02
#570000
1#
1(
12
b00000000000000000000000000000011 8
#575000
0#
0(
02
#580000
1#
1(
12
b00000000000000000000000000000100 8
#585000
0#
0(
02
#590000
1#
1(
12
b00000000000000000000000000000101 8
#595000
0#
0(
02
#600000
1#
1(
12
b00000000000000000000000000000110 8
#605000
0#
0(
02
#610000
1#
1(
12
b11 7
b00000000000000000000000000000111 8
#615000
0#
0(
02
#620000
1#
1(
12
b11 6
b00 7
b00000000000000000000000000001000 8
19
#625000
0#
0(
02
#630000
1#
1(
b011 .
10
12
15
b00 6
b00000000000000000000000000000000 8
09
#635000
0#
0(
02
#640000
1#
1(
b011 -
1/
00
11
12
14
05
b01 7
1K
1L
#645000
0#
0(
02
#650000
1#
1(
0/
01
12
04
b01 6
b10 7
#655000
0#
0(
02
#660000
1#
1(
12
b10 6
#665000
0#
0(
02
#670000
1#
1(
12
b00000000000000000000000000000001 8
#675000
0#
0(
02
#680000
1#
1(
12
b00000000000000000000000000000010 8
#685000
0#
0(
02
#690000
1#
1(
12
b00000000000000000000000000000011 8
#695000
0#
0(
02
#700000
1#
1(
12
b00000000000000000000000000000100 8
#705000
0#
0(
02
#710000
1#
1(
12
b00000000000000000000000000000101 8
#715000
0#
0(
02
#720000
1#
1(
12
b00000000000000000000000000000110 8
#725000
0#
0(
02
#730000
1#
1(
12
b11 7
b00000000000000000000000000000111 8
#735000
0#
0(
02
#740000
1#
1(
12
b11 6
b00 7
b00000000000000000000000000001000 8
19
#745000
0#
0(
02
#750000
1#
1(
b100 .
10
12
15
b00 6
b00000000000000000000000000000000 8
09
#755000
0#
0(
02
#760000
1#
1(
b100 -
1/
00
11
12
14
05
b01 7
1O
1P
#765000
0#
0(
02
#770000
1#
1(
0/
01
12
04
b01 6
b10 7
#775000
0#
0(
02
#780000
1#
1(
12
b10 6
#785000
0#
0(
02
#790000
1#
1(
12
b00000000000000000000000000000001 8
#795000
0#
0(
02
#800000
1#
1(
12
b00000000000000000000000000000010 8
#805000
0#
0(
02
#810000
1#
1(
12
b00000000000000000000000000000011 8
#815000
0#
0(
02
#820000
1#
1(
12
b00000000000000000000000000000100 8
#825000
0#
0(
02
#830000
1#
1(
12
b00000000000000000000000000000101 8
#835000
0#
0(
02
#840000
1#
1(
12
b00000000000000000000000000000110 8
#845000
0#
0(
02
#850000
1#
1(
12
b11 7
b00000000000000000000000000000111 8
#855000
0#
0(
02
#860000
1#
1(
12
b11 6
b00 7
b00000000000000000000000000001000 8
19
#865000
0#
0(
02
#870000
1#
1(
b101 .
10
12
15
b00 6
b00000000000000000000000000000000 8
09
#875000
0#
0(
02
#880000
1#
1&
1'
1(
1+
1,
b101 -
b000 .
00
12
05
1D
1E
#885000
0#
0(
02
#890000
1#
0%
0&
0'
1(
0*
0+
0,
b000 -
12
#895000
0#
0(
02
#900000
1#
0$
1(
0)
12
03
#905000
0#
0(
02
#910000
1#
1(
12
#915000
0#
0(
02
#920000
1#
1$
1(
1)
12
13
#925000
0#
0(
02
#930000
1#
1(
12
#935000
0#
0(
02
#940000
1#
1%
1(
1*
b001 -
b010 .
12
#945000
0#
0(
02
#950000
1#
1(
b010 -
1/
11
12
14
b01 7
#955000
0#
0(
02
#960000
1#
1(
0/
01
12
04
b01 6
b10 7
#965000
0#
0(
02
#970000
1#
1(
12
b10 6
#975000
0#
0(
02
#980000
1#
1(
12
b00000000000000000000000000000001 8
#985000
0#
0(
02
#990000
1#
1(
12
b00000000000000000000000000000010 8
#995000
0#
0(
02
#1000000
1#
1(
12
b00000000000000000000000000000011 8
#1005000
0#
0(
02
#1010000
1#
1(
12
b00000000000000000000000000000100 8
#1015000
0#
0(
02
#1020000
1#
1(
12
b00000000000000000000000000000101 8
#1025000
0#
0(
02
#1030000
1#
1(
12
b00000000000000000000000000000110 8
#1035000
0#
0(
02
#1040000
1#
1(
12
b11 7
b00000000000000000000000000000111 8
#1045000
0#
0(
02
#1050000
1#
1(
12
b11 6
b00 7
b00000000000000000000000000001000 8
19
#1055000
0#
0(
02
#1060000
1#
1(
b011 .
10
12
15
b00 6
b00000000000000000000000000000000 8
09
#1065000
0#
0(
02
#1070000
1#
1(
b011 -
1/
00
11
12
14
05
b01 7
0K
0L
#1075000
0#
0(
02
#1080000
1#
1(
0/
01
12
04
b01 6
b10 7
#1085000
0#
0(
02
#1090000
1#
1(
12
b10 6
#1095000
0#
0(
02
#1100000
1#
1(
12
b00000000000000000000000000000001 8
#1105000
0#
0(
02
#1110000
1#
1(
12
b00000000000000000000000000000010 8
#1115000
0#
0(
02
#1120000
1#
1(
12
b00000000000000000000000000000011 8
#1125000
0#
0(
02
#1130000
1#
1(
12
b00000000000000000000000000000100 8
#1135000
0#
0(
02
#1140000
1#
1(
12
b00000000000000000000000000000101 8
#1145000
0#
0(
02
#1150000
1#
1(
12
b00000000000000000000000000000110 8
#1155000
0#
0(
02
#1160000
1#
1(
12
b11 7
b00000000000000000000000000000111 8
#1165000
0#
0(
02
#1170000
1#
1(
12
b11 6
b00 7
b00000000000000000000000000001000 8
19
#1175000
0#
0(
02
#1180000
1#
1(
b100 .
10
12
15
b00 6
b00000000000000000000000000000000 8
09
#1185000
0#
0(
02
#1190000
1#
1(
b100 -
1/
00
11
12
14
05
b01 7
#1195000
0#
0(
02
#1200000
1#
1(
0/
01
12
04
b01 6
b10 7
#1205000
0#
0(
02
#1210000
1#
1(
12
b10 6
#1215000
0#
0(
02
#1220000
1#
1(
12
b00000000000000000000000000000001 8
#1225000
0#
0(
02
#1230000
1#
1(
12
b00000000000000000000000000000010 8
#1235000
0#
0(
02
#1240000
1#
1(
12
b00000000000000000000000000000011 8
#1245000
0#
0(
02
#1250000
1#
1(
12
b00000000000000000000000000000100 8
#1255000
0#
0(
02
#1260000
1#
1(
12
b00000000000000000000000000000101 8
#1265000
0#
0(
02
#1270000
1#
1(
12
b00000000000000000000000000000110 8
#1275000
0#
0(
02
#1280000
1#
1(
12
b11 7
b00000000000000000000000000000111 8
#1285000
0#
0(
02
#1290000
1#
1(
12
b11 6
b00 7
b00000000000000000000000000001000 8
19
#1295000
0#
0(
02
#1300000
1#
1(
b101 .
10
12
15
b00 6
b00000000000000000000000000000000 8
09
#1305000
0#
0(
02
#1310000
1#
1&
1'
1(
1+
1,
b101 -
b000 .
00
12
05
#1315000
0#
0(
02
#1320000
1#
0%
0&
0'
1(
0*
0+
0,
b000 -
12
#1325000
0#
0(
02
#1330000
1#
1%
1(
1*
b001 .
12
#1335000
0#
0(
02
#1340000
1#
1(
b001 -
b010 .
12
#1345000
0#
0(
02
#1350000
1#
1(
b010 -
1/
11
12
14
b01 7
#1355000
0#
0(
02
#1360000
1#
1(
0/
01
12
04
b01 6
b10 7
#1365000
0#
0(
02
#1370000
1#
1(
12
b10 6
#1375000
0#
0(
02
#1380000
1#
1(
12
b00000000000000000000000000000001 8
#1385000
0#
0(
02
#1390000
1#
1(
12
b00000000000000000000000000000010 8
#1395000
0#
0(
02
#1400000
1#
1(
12
b00000000000000000000000000000011 8
#1405000
0#
0(
02
#1410000
1#
1(
12
b00000000000000000000000000000100 8
#1415000
0#
0(
02
#1420000
1#
1(
12
b00000000000000000000000000000101 8
#1425000
0#
0(
02
#1430000
1#
1(
12
b00000000000000000000000000000110 8
#1435000
0#
0(
02
#1440000
1#
1(
12
b11 7
b00000000000000000000000000000111 8
#1445000
0#
0(
02
#1450000
1#
1(
12
b11 6
b00 7
b00000000000000000000000000001000 8
19
#1455000
0#
0(
02
#1460000
1#
1(
b011 .
10
12
15
b00 6
b00000000000000000000000000000000 8
09
#1465000
0#
0(
02
#1470000
1#
1(
b011 -
1/
00
11
12
14
05
b01 7
1K
1L
#1475000
0#
0(
02
#1480000
1#
1(
0/
01
12
04
b01 6
b10 7
#1485000
0#
0(
02
#1490000
1#
1(
12
b10 6
#1495000
0#
0(
02
#1500000
1#
1(
12
b00000000000000000000000000000001 8
#1505000
0#
0(
02
#1510000
1#
1(
12
b00000000000000000000000000000010 8
#1515000
0#
0(
02
#1520000
1#
1(
12
b00000000000000000000000000000011 8
#1525000
0#
0(
02
#1530000
1#
1(
12
b00000000000000000000000000000100 8
#1535000
0#
0(
02
#1540000
1#
1(
12
b00000000000000000000000000000101 8
#1545000
0#
0(
02
#1550000
1#
1(
12
b00000000000000000000000000000110 8
#1555000
0#
0(
02
#1560000
1#
1(
12
b11 7
b00000000000000000000000000000111 8
#1565000
0#
0(
02
#1570000
1#
1(
12
b11 6
b00 7
b00000000000000000000000000001000 8
19
#1575000
0#
0(
02
#1580000
1#
1(
b100 .
10
12
15
b00 6
b00000000000000000000000000000000 8
09
#1585000
0#
0(
02
#1590000
1#
1(
b100 -
1/
00
11
12
14
05
b01 7
#1595000
0#
0(
02
#1600000
1#
1(
0/
01
12
04
b01 6
b10 7
#1605000
0#
0(
02
#1610000
1#
1(
12
b10 6
#1615000
0#
0(
02
#1620000
1#
1(
12
b00000000000000000000000000000001 8
#1625000
0#
0(
02
#1630000
1#
1(
12
b00000000000000000000000000000010 8
#1635000
0#
0(
02
#1640000
1#
1(
12
b00000000000000000000000000000011 8
#1645000
0#
0(
02
#1650000
1#
1(
12
b00000000000000000000000000000100 8
#1655000
0#
0(
02
#1660000
1#
1(
12
b00000000000000000000000000000101 8
#1665000
0#
0(
02
#1670000
1#
1(
12
b00000000000000000000000000000110 8
#1675000
0#
0(
02
#1680000
1#
1(
12
b11 7
b00000000000000000000000000000111 8
#1685000
0#
0(
02
#1690000
1#
1(
12
b11 6
b00 7
b00000000000000000000000000001000 8
19
#1695000
0#
0(
02
#1700000
1#
1(
b101 .
10
12
15
b00 6
b00000000000000000000000000000000 8
09
#1705000
0#
0(
02
#1710000
1#
1&
1'
1(
1+
1,
b101 -
b000 .
00
12
05
0D
0E
#1715000
0#
0(
02
#1720000
1#
0%
0&
0'
1(
0*
0+
0,
b000 -
12
